…
``` r
  #coord_cartesian(xlim = c(1750 , 2022))
```

### Exercise 13

###death mask is dated as year 2, however, it should be 1964. There are
two numbers in parentheses, the first of which is (2)

``` r
uoe_art %>% 
  arrange(year)
```

    ## # A tibble: 2,910 × 4
    ##    title                                      artist         year date   
    ##    <chr>                                      <chr>         <dbl> <chr>  
    ##  1 "Death Mask "                              H. Dempshall      2 "2) "  
    ##  2 "Sampler. Mary Ann Park "                  Mary Ann Park  1819 "1819)"
    ##  3 "Fine lawn collar "                        Unknown        1820 "1820)"
    ##  4 "Dying Gaul "                              Unknown        1822 "1822)"
    ##  5 "The Dead Christ "                         Unknown        1831 "1831)"
    ##  6 "Crouching Venus "                         Sarti          1834 "1834)"
    ##  7 "Gates of Paradise "                       Clement Pappi  1835 "1835)"
    ##  8 "Castor and Pollux "                       Sarti          1835 "1835)"
    ##  9 "Metope 11, south entablature, Parthenon " <NA>           1837 "1837)"
    ## 10 "Metope 5, south entablature, Parthenon "  <NA>           1837 "1837)"
    ## # … with 2,900 more rows
…
``` r
uoe_art_edit %>% 
  arrange(year)
```

    ## # A tibble: 2,910 × 4
    ##    title                                      artist         year date 
    ##    <chr>                                      <chr>         <dbl> <chr>
    ##  1 "Sampler. Mary Ann Park "                  Mary Ann Park  1819 1819)
    ##  2 "Fine lawn collar "                        Unknown        1820 1820)
    ##  3 "Dying Gaul "                              Unknown        1822 1822)
    ##  4 "The Dead Christ "                         Unknown        1831 1831)
    ##  5 "Crouching Venus "                         Sarti          1834 1834)
    ##  6 "Gates of Paradise "                       Clement Pappi  1835 1835)
    ##  7 "Castor and Pollux "                       Sarti          1835 1835)
    ##  8 "Metope 11, south entablature, Parthenon " <NA>           1837 1837)
    ##  9 "Metope 5, south entablature, Parthenon "  <NA>           1837 1837)
    ## 10 "Metope South 7 from the Parthenon "       <NA>           1837 1837)
    ## # … with 2,900 more rows
…
``` r
uoe_art_edit %>% 
  count(artist) %>% 
  arrange(desc(n))
```

    ## # A tibble: 1,100 × 2
    ##    artist               n
    ##    <chr>            <int>
    ##  1 Unknown            350
    ##  2 Emma Gillies       143
    ##  3 <NA>               113
    ##  4 John Bellany        20
    ##  5 Ann F Ward          19
    ##  6 Zygmunt Bukowski    17
    ##  7 Boris Bućan         16
    ##  8 Gordon Bryce        16
    ##  9 Marjorie Wallace    16
    ## 10 William Gillon      15
    ## # … with 1,090 more rows
…
